module x-ui

go 1.18

require (
	github.com/BurntSushi/toml v1.3.2
	github.com/Workiva/go-datastructures v1.1.0
	github.com/gin-contrib/sessions v0.0.5
	github.com/gin-gonic/gin v1.9.1
	github.com/go-telegram-bot-api/telegram-bot-api/v5 v5.5.1
	github.com/nicksnyder/go-i18n/v2 v2.2.0
	github.com/op/go-logging v0.0.0-20160315200505-970db520ece7
	github.com/robfig/cron/v3 v3.0.1
	github.com/shirou/gopsutil v3.21.11+incompatible
	github.com/xtls/xray-core v1.8.0
	go.uber.org/atomic v1.10.0
	golang.org/x/text v0.8.0
	google.golang.org/grpc v1.53.0
	gorm.io/driver/sqlite v1.3.5
	gorm.io/gorm v1.23.7
)

require (
	github.com/gin-contrib/sse v0.1.0 // indirect
	github.com/go-ole/go-ole v1.2.6 // indirect
	github.com/go-playground/locales v0.14.0 // indirect
	github.com/go-playground/universal-translator v0.18.0 // indirect
	github.com/go-playground/validator/v10 v10.11.0 // indirect
	github.com/goccy/go-json v0.9.8 // indirect
	github.com/golang/protobuf v1.5.3 // indirect
	github.com/gorilla/context v1.1.1 // indirect
	github.com/gorilla/securecookie v1.1.1 // indirect
	github.com/gorilla/sessions v1.2.1 // indirect
	github.com/jinzhu/inflection v1.0.0 // indirect
	github.com/jinzhu/now v1.1.5 // indirect
	github.com/json-iterator/go v1.1.12 // indirect
	github.com/leodido/go-urn v1.2.1 // indirect
	github.com/mattn/go-isatty v0.0.14 // indirect
	github.com/mattn/go-sqlite3 v1.14.15 // indirect
	github.com/modern-go/concurrent v0.0.0-20180306012644-bacd9c7ef1dd // indirect
	github.com/modern-go/reflect2 v1.0.2 // indirect
	github.com/pelletier/go-toml/v2 v2.0.2 // indirect
	github.com/pires/go-proxyproto v0.6.2 // indirect
	github.com/tklauser/go-sysconf v0.3.10 // indirect
	github.com/tklauser/numcpus v0.5.0 // indirect
	github.com/ugorji/go/codec v1.2.7 // indirect
	github.com/yusufpapurcu/wmi v1.2.2 // indirect
	golang.org/x/crypto v0.7.0 // indirect
	golang.org/x/net v0.8.0 // indirect
	golang.org/x/sys v0.6.0 // indirect
	google.golang.org/genproto v0.0.0-20230306155012-7f2fa6fef1f4 // indirect
	google.golang.org/protobuf v1.29.1 // indirect
	gopkg.in/yaml.v2 v2.4.0 // indirect
)
